<svg id="구성_요소_4_30" data-name="구성 요소 4 – 30" xmlns="http://www.w3.org/2000/svg" width="30" height="30" viewBox="0 0 30 30">
  <g id="사각형_4162" data-name="사각형 4162" fill="#fff" stroke="#707070" stroke-width="1" opacity="0">
    <rect width="30" height="30" stroke="none"/>
    <rect x="0.5" y="0.5" width="29" height="29" fill="none"/>
  </g>
  <g id="그룹_29126" data-name="그룹 29126" transform="translate(-120.214 -23)">
    <path id="패스_70181" data-name="패스 70181" d="M127.8,305.115a6.474,6.474,0,0,1,6.427-6.517h1.955a6.479,6.479,0,0,1,6.449,6.517v.9h1.8v-.9A8.277,8.277,0,0,0,136.2,296.8h-1.955A8.282,8.282,0,0,0,126,305.115v.9h1.8Z" transform="translate(0 -258.013)"/>
    <path id="패스_70182" data-name="패스 70182" d="M254.8,32.045v1.8a4.045,4.045,0,0,0,8.09,0v-1.8a4.045,4.045,0,0,0-8.09,0Zm6.292,0v1.8a2.247,2.247,0,0,1-4.494,0v-1.8a2.247,2.247,0,0,1,4.494,0Z" transform="translate(-123.63)"/>
  </g>
</svg>
