<svg xmlns="http://www.w3.org/2000/svg" width="12" height="8.447" viewBox="0 0 12 8.447">
  <path id="패스_70805" data-name="패스 70805" d="M1.609,44.386l2.95,2.95,5.9-5.3L12,43.716,4.492,50.487,0,46Z" transform="translate(0 -42.04)" fill="#fff"/>
</svg>
