<?xml version="1.0" encoding="utf-8"?>
<!-- Generator: Adobe Illustrator 24.3.0, SVG Export Plug-In . SVG Version: 6.00 Build 0)  -->
<svg version="1.1" id="레이어_1" xmlns="http://www.w3.org/2000/svg" xmlns:xlink="http://www.w3.org/1999/xlink" x="0px"
	 y="0px" width="20px" height="20px" viewBox="0 0 20 20" style="enable-background:new 0 0 20 20;" xml:space="preserve">
<style type="text/css">
	.st0{opacity:0;}
	.st1{fill:#666666;}
	.st2{fill:none;stroke:#707070;}
</style>
<g id="그룹_29073" transform="translate(-315 -167)">
	<g id="사각형_245" transform="translate(315 167)" class="st0">
		<rect class="st1" width="20" height="20"/>
		<rect x="0.5" y="0.5" class="st2" width="19" height="19"/>
	</g>
	<path id="패스_1428" class="st1" d="M325,181.8l-5-7.6h10L325,181.8z"/>
</g>
</svg>
