<svg xmlns="http://www.w3.org/2000/svg" width="12" height="13" viewBox="0 0 12 13">
  <path id="noun-delet-4151480" d="M144,57h1v6h-1Zm3,6h1V57h-1Zm5-8h-1V65.5H141V55h-1V54h2.5V52.5h7V54H152Zm-8.5-1h5v-.5h-5Zm6.5,1h-8v9.5h8Z" transform="translate(-140 -52.5)" fill="#fff"/>
</svg>
