<?xml version="1.0" encoding="utf-8"?>
<!-- Generator: Adobe Illustrator 24.3.0, SVG Export Plug-In . SVG Version: 6.00 Build 0)  -->
<svg version="1.1" id="레이어_1" xmlns="http://www.w3.org/2000/svg" xmlns:xlink="http://www.w3.org/1999/xlink" x="0px"
	 y="0px" width="30px" height="30px" viewBox="0 0 30 30" style="enable-background:new 0 0 30 30;" xml:space="preserve">
<style type="text/css">
	.st0{opacity:0;}
	.st1{fill:#666666;}
	.st2{fill:none;stroke:#707070;}
	.st3{fill-rule:evenodd;clip-rule:evenodd;fill:#666666;}
</style>
<g id="그룹_651" transform="translate(1354 -4130)">
	<g id="사각형_238" transform="translate(-1354 4130)" class="st0">
		<rect class="st1" width="30" height="30"/>
		<rect x="0.5" y="0.5" class="st2" width="29" height="29"/>
	</g>
	<path id="패스_1391" class="st3" d="M-1342.7,4145l9.9,8.4l-1.4,1.6l-11.8-10l11.8-10l1.4,1.6L-1342.7,4145z"/>
</g>
</svg>
