<?xml version="1.0" encoding="utf-8"?>
<!-- Generator: Adobe Illustrator 24.3.0, SVG Export Plug-In . SVG Version: 6.00 Build 0)  -->
<svg version="1.1" id="레이어_1" xmlns="http://www.w3.org/2000/svg" xmlns:xlink="http://www.w3.org/1999/xlink" x="0px"
	 y="0px" width="216px" height="216px" viewBox="0 0 216 216" style="enable-background:new 0 0 216 216;" xml:space="preserve">
<style type="text/css">
	.st0{fill:#FFFFFF;}
	.st1{fill:none;stroke:#63A5E4;stroke-width:2;}
	.st2{fill:#F2F2F2;}
	.st3{fill:#C4C4C4;}
</style>
<g id="그룹_30040" transform="translate(-44 -245)">
	<g id="사각형_4156" transform="translate(44 245)">
		<path class="st0" d="M108,0L108,0c59.6,0,108,48.4,108,108l0,0c0,59.6-48.4,108-108,108l0,0C48.4,216,0,167.6,0,108l0,0
			C0,48.4,48.4,0,108,0z"/>
		<path class="st1" d="M108,1L108,1c59.1,0,107,47.9,107,107l0,0c0,59.1-47.9,107-107,107l0,0C48.9,215,1,167.1,1,108l0,0
			C1,48.9,48.9,1,108,1z"/>
	</g>
	<g id="그룹_29817" transform="translate(53.818 254.818)">
		<g id="그룹_29722" transform="translate(0 0)">
			<circle id="타원_17" class="st2" cx="98.2" cy="98.2" r="98"/>
			<g id="noun-hospital-4866270" transform="translate(-42.812 -12.551)">
				<path id="패스_70594" class="st3" d="M134.4,83.4h3.3v3.2c0,1.9,1.5,3.4,3.3,3.4s3.4-1.5,3.4-3.3c0,0,0-0.1,0-0.1v-3.2h3.3
					c1.9,0,3.4-1.5,3.4-3.4s-1.5-3.4-3.4-3.4l0,0h-3.3v-3.3c0-1.9-1.5-3.4-3.3-3.4s-3.4,1.5-3.4,3.3c0,0,0,0.1,0,0.1v3.3h-3.3
					c-1.9,0-3.4,1.5-3.4,3.4S132.5,83.4,134.4,83.4z"/>
				<path id="패스_70595" class="st3" d="M204,157.6h-1.4V81.9c0-5.1-4.1-9.3-9.3-9.3h-22.5V66c0-5.1-4.2-9.2-9.3-9.2h-41.1
					c-5.1,0-9.2,4.1-9.3,9.2v6.6H88.7c-5.1,0-9.3,4.1-9.3,9.3v75.7H78c-1.9,0-3.4,1.5-3.4,3.3s1.5,3.4,3.3,3.4c0,0,0.1,0,0.1,0H204
					c1.9,0,3.3-1.6,3.3-3.4C207.2,159.1,205.8,157.6,204,157.6L204,157.6z M193.3,79.3c1.4,0,2.5,1.1,2.5,2.5v75.7h-25V79.3
					L193.3,79.3z M117.9,66c0-1.4,1.1-2.5,2.5-2.5h41.1c1.4,0,2.5,1.1,2.5,2.4c0,0,0,0,0,0.1v91.6h-8.4v-18.8c0-4.8-3.9-8.7-8.7-8.7
					H135c-4.8,0-8.7,3.9-8.7,8.7v18.8h-8.4L117.9,66z M86.2,81.9c0-1.4,1.1-2.5,2.5-2.5h22.5v78.3h-25L86.2,81.9z M133.1,157.6
					v-18.8c0-1.1,0.9-2,2-2h11.9c1.1,0,2,0.9,2,2v18.8H133.1z"/>
				<path id="패스_70596" class="st3" d="M94.9,102.3h7.5c1.9,0,3.4-1.5,3.4-3.3s-1.5-3.4-3.3-3.4c0,0-0.1,0-0.1,0h-7.5
					c-1.9,0-3.4,1.5-3.4,3.3s1.5,3.4,3.3,3.4C94.9,102.3,94.9,102.3,94.9,102.3z"/>
				<path id="패스_70597" class="st3" d="M102.4,117.3h-7.5c-1.9,0-3.4,1.5-3.4,3.3s1.5,3.4,3.3,3.4c0,0,0.1,0,0.1,0h7.5
					c1.9,0,3.4-1.5,3.4-3.3s-1.5-3.4-3.3-3.4C102.5,117.3,102.5,117.3,102.4,117.3z"/>
				<path id="패스_70598" class="st3" d="M102.4,139.2h-7.5c-1.9,0-3.4,1.5-3.4,3.3s1.5,3.4,3.3,3.4c0,0,0.1,0,0.1,0h7.5
					c1.9,0,3.4-1.5,3.4-3.3s-1.5-3.4-3.3-3.4C102.5,139.2,102.5,139.2,102.4,139.2z"/>
				<path id="패스_70599" class="st3" d="M179.6,102.3h7.5c1.9,0,3.3-1.6,3.3-3.4c0-1.8-1.5-3.3-3.3-3.3h-7.5
					c-1.9,0-3.4,1.5-3.4,3.3c0,1.9,1.5,3.4,3.3,3.4C179.5,102.3,179.5,102.3,179.6,102.3z"/>
				<path id="패스_70600" class="st3" d="M179.6,124.1h7.5c1.9,0,3.3-1.6,3.3-3.4c0-1.8-1.5-3.3-3.3-3.3h-7.5
					c-1.9,0-3.4,1.5-3.4,3.3c0,1.9,1.5,3.4,3.3,3.4C179.5,124.1,179.5,124.1,179.6,124.1z"/>
				<path id="패스_70601" class="st3" d="M187,139.2h-7.5c-1.9,0-3.4,1.5-3.4,3.3c0,1.9,1.5,3.4,3.3,3.4c0,0,0.1,0,0.1,0h7.5
					c1.9,0,3.4-1.5,3.4-3.3c0-1.9-1.5-3.4-3.3-3.4C187.1,139.2,187.1,139.2,187,139.2z"/>
				<path id="패스_70602" class="st3" d="M128.8,120.3h24.4c1.9,0,3.3-1.6,3.3-3.4c0-1.8-1.5-3.3-3.3-3.3h-24.4
					c-1.9,0-3.4,1.5-3.4,3.3c0,1.9,1.5,3.4,3.3,3.4C128.7,120.3,128.8,120.3,128.8,120.3L128.8,120.3z"/>
				<path id="패스_70603" class="st3" d="M128.8,104.4h24.4c1.9,0,3.3-1.6,3.3-3.4c0-1.8-1.5-3.3-3.3-3.3h-24.4
					c-1.9,0-3.4,1.5-3.4,3.3c0,1.9,1.5,3.4,3.3,3.4C128.7,104.4,128.8,104.4,128.8,104.4L128.8,104.4z"/>
			</g>
		</g>
	</g>
</g>
</svg>
