<?xml version="1.0" encoding="utf-8"?>
<!-- Generator: Adobe Illustrator 24.3.0, SVG Export Plug-In . SVG Version: 6.00 Build 0)  -->
<svg version="1.1" id="레이어_1" xmlns="http://www.w3.org/2000/svg" xmlns:xlink="http://www.w3.org/1999/xlink" x="0px"
	 y="0px" width="80px" height="80px" viewBox="0 0 80 80" style="enable-background:new 0 0 80 80;" xml:space="preserve">
<style type="text/css">
	.st0{fill:#FFFFFF;}
	.st1{fill:#63A5E4;}
	.st2{fill:#F2F2F2;}
	.st3{fill:#C4C4C4;}
	.st4{fill:#45A6EA;}
</style>
<g>
	<path class="st0" d="M40,0C17.9,0,0,17.9,0,40C0,17.9,17.9,0,40,0z"/>
	<path class="st0" d="M40,2C19,2,2,19,2,40s17,38,38,38c5,0,9.7-1,14.1-2.7c-0.5-0.5-0.9-1.1-1.3-1.6c-4,1.5-8.3,2.3-12.8,2.3
		C20.1,76,4,59.9,4,40S20.1,4,40,4s36,16.1,36,36c0,4.4-0.8,8.7-2.3,12.6c0.6,0.4,1.1,0.8,1.6,1.3c1.7-4.3,2.7-9,2.7-14
		C78,19,61,2,40,2z"/>
	<path class="st0" d="M80,40C80,17.9,62.1,0,40,0C62.1,0,80,17.9,80,40z"/>
	<path class="st0" d="M40,80c5.6,0,10.9-1.2,15.7-3.2c0,0,0,0,0,0C50.9,78.8,45.6,80,40,80z"/>
	<path class="st0" d="M76.8,55.6c2-4.8,3.2-10.1,3.2-15.6C80,45.5,78.9,50.8,76.8,55.6C76.8,55.6,76.8,55.6,76.8,55.6z"/>
	<path class="st0" d="M0,40c0,22.1,17.9,40,40,40C17.9,80,0,62.1,0,40z"/>
	<path class="st1" d="M54.3,75.5c-0.1-0.1-0.1-0.2-0.2-0.2C49.7,77,45,78,40,78C19,78,2,61,2,40S19,2,40,2s38,17,38,38
		c0,4.9-1,9.6-2.7,14c0.1,0.1,0.1,0.1,0.2,0.1c0.5,0.5,0.9,1,1.3,1.5c2-4.8,3.2-10.1,3.2-15.6C80,17.9,62.1,0,40,0
		C17.9,0,0,17.9,0,40c0,22.1,17.9,40,40,40c5.6,0,10.9-1.2,15.7-3.2C55.2,76.4,54.8,76,54.3,75.5z"/>
	<path class="st1" d="M73,58.8c0,0.5-0.2,1.1-0.6,1.5l-0.8,0.8C72.1,60.4,72.5,59.6,73,58.8z"/>
	<path class="st1" d="M60.9,71.7L60.9,71.7l-0.1,0.1C60.8,71.8,60.8,71.8,60.9,71.7z"/>
	<path class="st2" d="M47.8,22.3H32.2c-0.5,0-0.9,0.4-1,0.9l0,34.5h3.2v-7.1c0-1.8,1.5-3.3,3.3-3.3h4.5c1.8,0,3.3,1.5,3.3,3.3v7.1
		h3.2V23.2c0,0,0,0,0,0C48.7,22.7,48.3,22.3,47.8,22.3z M37.5,27.2h1.2V26c0,0,0,0,0,0c0-0.7,0.6-1.3,1.3-1.3c0.7,0,1.3,0.6,1.3,1.3
		v1.2h1.2c0.7,0,1.3,0.6,1.3,1.3s-0.6,1.3-1.3,1.3h-1.2V31c0,0,0,0,0,0c0,0.7-0.6,1.3-1.3,1.3c-0.7,0-1.3-0.6-1.3-1.3v-1.2h-1.2
		c-0.7,0-1.3-0.6-1.3-1.3S36.8,27.2,37.5,27.2z M35.4,35.1h9.2c0.7,0,1.3,0.6,1.3,1.3c0,0.7-0.6,1.3-1.3,1.3h-9.2
		c-0.7,0-1.3-0.6-1.3-1.3C34.1,35.7,34.7,35.1,35.4,35.1z M44.6,43.7h-9.2c-0.7,0-1.3-0.6-1.3-1.3c0-0.7,0.6-1.3,1.3-1.3h9.2
		c0.7,0,1.3,0.6,1.3,1.3C45.9,43.1,45.3,43.7,44.6,43.7z"/>
	<path class="st2" d="M40,4C20.1,4,4,20.1,4,40s16.1,36,36,36c4.5,0,8.8-0.8,12.8-2.3c-0.1-0.2-0.3-0.4-0.4-0.6
		c-1.5-2.4-2.4-5.2-2.4-8.2c0-1.6,0.3-3.2,0.7-4.6H16.3c0,0,0,0,0,0c-0.7,0-1.3-0.6-1.3-1.3c0-0.7,0.6-1.3,1.3-1.3h0.5V29.2
		c0-1.9,1.6-3.5,3.5-3.5h8.5v-2.5c0-1.9,1.6-3.5,3.5-3.5h15.5c1.9,0,3.5,1.6,3.5,3.5v2.5h8.5c1.9,0,3.5,1.6,3.5,3.5v20.7
		c0.6-0.1,1.1-0.1,1.7-0.1c3.1,0,5.9,0.9,8.2,2.4c0.2,0.1,0.4,0.3,0.6,0.4C75.2,48.7,76,44.4,76,40C76,20.1,59.9,4,40,4z"/>
	<path class="st2" d="M20.3,28.2c-0.5,0-0.9,0.4-0.9,1v28.5h9.4V28.2H20.3z M25.5,53.3h-2.8c-0.7,0-1.3-0.6-1.3-1.3
		c0-0.7,0.6-1.3,1.3-1.3h2.8c0,0,0,0,0,0c0.7,0,1.3,0.6,1.3,1.3C26.7,52.8,26.2,53.3,25.5,53.3z M25.5,45.1h-2.8
		c-0.7,0-1.3-0.6-1.3-1.3s0.6-1.3,1.3-1.3h2.8c0,0,0,0,0,0c0.7,0,1.3,0.6,1.3,1.3C26.7,44.5,26.2,45.1,25.5,45.1z M25.5,36.9h-2.8
		c-0.7,0-1.3-0.6-1.3-1.3c0-0.7,0.6-1.3,1.3-1.3h2.8c0.7,0,1.3,0.6,1.3,1.3C26.7,36.3,26.2,36.9,25.5,36.9z"/>
	<path class="st2" d="M42.2,49.9h-4.5c-0.4,0-0.7,0.3-0.7,0.7v7.1l6,0v-7.1C43,50.2,42.7,49.9,42.2,49.9z"/>
	<path class="st2" d="M59.7,28.2h-8.5v29.5h0.6c0.9-1.7,2.1-3.2,3.6-4.4h-0.8c-0.7,0-1.3-0.6-1.3-1.3c0-0.7,0.6-1.3,1.3-1.3h2.8
		c0,0,0,0,0,0c0.4,0,0.8,0.2,1,0.5c0.7-0.4,1.5-0.7,2.3-0.9V29.2C60.7,28.7,60.2,28.2,59.7,28.2z M57.4,45.1h-2.8
		c-0.7,0-1.3-0.6-1.3-1.3s0.6-1.3,1.3-1.3h2.8c0.7,0,1.3,0.6,1.3,1.3S58.1,45.1,57.4,45.1z M57.4,36.9h-2.8c-0.7,0-1.3-0.6-1.3-1.3
		c0-0.7,0.6-1.3,1.3-1.3h2.8c0.7,0,1.3,0.6,1.3,1.3C58.6,36.3,58.1,36.9,57.4,36.9z"/>
	<path class="st3" d="M37.5,29.8C37.5,29.8,37.5,29.8,37.5,29.8h1.2V31c0,0.7,0.6,1.3,1.3,1.3c0.7,0,1.3-0.6,1.3-1.3c0,0,0,0,0,0
		v-1.2h1.2c0.7,0,1.3-0.6,1.3-1.3c0-0.7-0.6-1.3-1.3-1.3c0,0,0,0,0,0h-1.2V26c0-0.7-0.6-1.3-1.3-1.3c-0.7,0-1.3,0.6-1.3,1.3
		c0,0,0,0,0,0v1.2h-1.2c-0.7,0-1.3,0.6-1.3,1.3C36.2,29.2,36.8,29.8,37.5,29.8z"/>
	<path class="st3" d="M59.7,25.7h-8.5v-2.5c0-1.9-1.6-3.5-3.5-3.5H32.3c-1.9,0-3.5,1.5-3.5,3.5v2.5h-8.5c-1.9,0-3.5,1.6-3.5,3.5
		v28.5h-0.5c-0.7,0-1.3,0.6-1.3,1.3c0,0.7,0.6,1.3,1.3,1.3h34.4c0.2-0.7,0.5-1.3,0.8-2c0.1-0.2,0.2-0.4,0.3-0.6h-0.6V28.2h8.5
		c0.5,0,0.9,0.4,0.9,0.9v21.2c0.8-0.2,1.7-0.4,2.6-0.5V29.2C63.2,27.2,61.6,25.7,59.7,25.7z M28.8,57.7h-9.4V29.2c0-0.5,0.4-1,0.9-1
		h8.5V57.7z M43,57.7h-6v-7.1c0-0.4,0.3-0.8,0.8-0.8h4.5c0.4,0,0.8,0.3,0.8,0.8V57.7z M48.7,23.2v34.5h-3.2v-7.1
		c0-1.8-1.5-3.3-3.3-3.3h-4.5c-1.8,0-3.3,1.5-3.3,3.3v7.1h-3.2l0-34.5c0-0.5,0.4-0.9,1-0.9h15.5C48.3,22.3,48.7,22.7,48.7,23.2
		C48.7,23.2,48.7,23.2,48.7,23.2z"/>
	<path class="st3" d="M22.6,36.9h2.8c0.7,0,1.3-0.6,1.3-1.3s-0.6-1.3-1.3-1.3h-2.8c-0.7,0-1.3,0.6-1.3,1.3S21.9,36.9,22.6,36.9z"/>
	<path class="st3" d="M22.6,45.1C22.6,45.1,22.6,45.1,22.6,45.1h2.8c0.7,0,1.3-0.6,1.3-1.3c0-0.7-0.6-1.3-1.3-1.3c0,0,0,0,0,0h-2.8
		c-0.7,0-1.3,0.6-1.3,1.3C21.4,44.5,21.9,45.1,22.6,45.1z"/>
	<path class="st3" d="M22.6,53.3C22.6,53.3,22.6,53.3,22.6,53.3h2.8c0.7,0,1.3-0.6,1.3-1.3c0-0.7-0.6-1.3-1.3-1.3c0,0,0,0,0,0h-2.8
		c-0.7,0-1.3,0.6-1.3,1.3S21.9,53.3,22.6,53.3z"/>
	<path class="st3" d="M57.4,34.3h-2.8c-0.7,0-1.3,0.6-1.3,1.3s0.6,1.3,1.3,1.3h2.8c0.7,0,1.3-0.6,1.3-1.3S58.1,34.3,57.4,34.3z"/>
	<path class="st3" d="M57.4,42.6h-2.8c-0.7,0-1.3,0.6-1.3,1.3c0,0.7,0.6,1.3,1.3,1.3c0,0,0,0,0,0h2.8c0.7,0,1.3-0.6,1.3-1.3
		C58.6,43.1,58.1,42.6,57.4,42.6z"/>
	<path class="st3" d="M57.4,50.8C57.4,50.8,57.4,50.8,57.4,50.8h-2.8c-0.7,0-1.3,0.6-1.3,1.3c0,0.7,0.6,1.3,1.3,1.3c0,0,0,0,0,0h0.8
		c0.3-0.3,0.7-0.6,1-0.8c0.6-0.4,1.3-0.8,2-1.2C58.1,51,57.8,50.8,57.4,50.8z"/>
	<path class="st3" d="M44.6,41.1C44.6,41.1,44.6,41.1,44.6,41.1h-9.2c-0.7,0-1.3,0.6-1.3,1.3c0,0.7,0.6,1.3,1.3,1.3c0,0,0,0,0,0h9.2
		c0.7,0,1.3-0.6,1.3-1.3C45.9,41.7,45.3,41.1,44.6,41.1z"/>
	<path class="st3" d="M35.4,37.7h9.2c0.7,0,1.3-0.6,1.3-1.3s-0.6-1.3-1.3-1.3h-9.2c-0.7,0-1.3,0.6-1.3,1.3S34.7,37.7,35.4,37.7z"/>
	<path class="st4" d="M76.9,55.7C76.9,55.7,76.9,55.7,76.9,55.7C76.8,55.6,76.8,55.6,76.9,55.7c-0.5-0.7-0.9-1.1-1.4-1.6
		c0,0-0.1-0.1-0.2-0.1c-0.5-0.5-1-0.9-1.6-1.3c-0.2-0.2-0.4-0.3-0.6-0.4c-2.3-1.5-5.1-2.4-8.2-2.4c-0.6,0-1.1,0-1.7,0.1
		c-0.9,0.1-1.7,0.3-2.6,0.5c-0.8,0.2-1.5,0.5-2.3,0.9c-0.7,0.3-1.3,0.7-2,1.2c-0.4,0.3-0.7,0.5-1,0.8c-1.5,1.2-2.7,2.7-3.6,4.4
		c-0.1,0.2-0.2,0.4-0.3,0.6c-0.3,0.6-0.6,1.3-0.8,2c-0.5,1.4-0.7,3-0.7,4.6c0,3,0.9,5.8,2.4,8.2c0.1,0.2,0.3,0.4,0.4,0.6
		c0.4,0.6,0.9,1.1,1.3,1.6c0.1,0.1,0.1,0.1,0.2,0.2c0.5,0.5,0.9,0.9,1.4,1.3c0,0,0,0,0,0c0,0,0.1,0.1,0.2,0.1
		c2.5,1.9,5.6,3.1,9.1,3.1c8.3,0,15-6.7,15-15C79.9,61.4,78.8,58.3,76.9,55.7z M60.9,71.7L60.9,71.7l-0.1,0.1l-3.8,1l0.3-1.2
		l0.7-2.6l9.6-9.6l1.7,1.7l1.2,1.2L60.9,71.7z M72.4,60.3l-1,1L70,59.9l-1.5-1.5l1-1c0.6-0.6,1.5-0.8,2.2-0.4
		c0.2,0.1,0.5,0.2,0.7,0.4c0.4,0.4,0.6,0.9,0.6,1.4C73,59.3,72.8,59.9,72.4,60.3z"/>
	<path class="st0" d="M73,58.8c-0.5,0.8-0.9,1.6-1.4,2.3l-0.2,0.2L70,59.9l-1.5-1.5l1-1c0.6-0.6,1.5-0.8,2.2-0.4
		c0.2,0.1,0.5,0.2,0.7,0.4C72.8,57.8,73,58.3,73,58.8z"/>
	<path class="st0" d="M70.4,62.3l-9.5,9.4c0,0-0.1,0-0.1,0.1l-3.8,1l0.3-1.2l0.7-2.6l9.6-9.6l1.7,1.7L70.4,62.3z"/>
</g>
</svg>
