<?xml version="1.0" encoding="utf-8"?>
<!-- Generator: Adobe Illustrator 24.3.0, SVG Export Plug-In . SVG Version: 6.00 Build 0)  -->
<svg version="1.1" id="레이어_1" xmlns="http://www.w3.org/2000/svg" xmlns:xlink="http://www.w3.org/1999/xlink" x="0px"
	 y="0px" width="110px" height="110px" viewBox="0 0 110 110" style="enable-background:new 0 0 110 110;" xml:space="preserve">
<style type="text/css">
	.st0{fill:#FFFFFF;}
	.st1{fill:none;stroke:#63A5E4;stroke-width:2;}
	.st2{fill:#F2F2F2;}
	.st3{fill:#C4C4C4;}
</style>
<g id="그룹_29127" transform="translate(-44 -245)">
	<g id="사각형_4156" transform="translate(44 245)">
		<path class="st0" d="M55,0L55,0c30.4,0,55,24.6,55,55l0,0c0,30.4-24.6,55-55,55l0,0C24.6,110,0,85.4,0,55l0,0C0,24.6,24.6,0,55,0z
			"/>
		<path class="st1" d="M55,1L55,1c29.8,0,54,24.2,54,54l0,0c0,29.8-24.2,54-54,54l0,0C25.2,109,1,84.8,1,55l0,0C1,25.2,25.2,1,55,1z
			"/>
	</g>
	<g id="그룹_29817" transform="translate(-89 76)">
		<g id="그룹_29722" transform="translate(-117)">
			<circle id="타원_17" class="st2" cx="305" cy="224" r="50"/>
			<g id="그룹_29126" transform="translate(150.999 164)">
				<path id="패스_70181" class="st3" d="M131.5,89.1c0-11.5,8.7-20.9,19.5-20.9h5.9c10.9,0,19.6,9.3,19.6,20.9V92h5.5v-2.9
					c0-14.7-11.2-26.6-25-26.6h-5.9c-13.9,0-25.1,11.9-25.1,26.6V92h5.5V89.1z"/>
				<path id="패스_70182" class="st3" d="M141.7,40.9v5.8c0,7.1,5.5,12.9,12.3,12.9s12.3-5.8,12.3-12.9v-5.8
					c0-7.1-5.5-12.9-12.3-12.9S141.7,33.8,141.7,40.9z M160.8,40.9v5.8c0.2,3.8-2.7,7-6.5,7.2c-3.8,0.2-7-2.7-7.2-6.5
					c0-0.2,0-0.5,0-0.7v-5.8c-0.2-3.8,2.7-7,6.5-7.2c3.8-0.2,7,2.7,7.2,6.5C160.8,40.5,160.8,40.7,160.8,40.9z"/>
			</g>
		</g>
	</g>
</g>
</svg>
