<svg id="password_hide" data-name="password hide" xmlns="http://www.w3.org/2000/svg" width="20" height="20" viewBox="0 0 20 20">
  <rect id="사각형_250" data-name="사각형 250" width="20" height="20" fill="#666" opacity="0"/>
  <path id="noun-hide-2310023" d="M115.419,59.953l-11.71,11.71.7.7,2.414-2.414a7.286,7.286,0,0,0,3.06.66,8.164,8.164,0,0,0,6.887-4.227l.113-.225-.114-.223a8.794,8.794,0,0,0-2.886-3.046l2.237-2.237Zm-5.539,1.773a8.164,8.164,0,0,0-6.887,4.227l-.113.225.114.223a8.734,8.734,0,0,0,2.1,2.48l2.376-2.376a2.451,2.451,0,0,1,2.44-2.814,2.5,2.5,0,0,1,.347.027l1.692-1.692a7.389,7.389,0,0,0-2.072-.3Zm2.085,3.076a2.436,2.436,0,0,1,.414,1.355,2.475,2.475,0,0,1-2.467,2.467,2.434,2.434,0,0,1-1.355-.414Z" transform="translate(-99.88 -56.157)" fill="#c4c4c4"/>
</svg>
