<svg id="구성_요소_5_29" data-name="구성 요소 5 – 29" xmlns="http://www.w3.org/2000/svg" xmlns:xlink="http://www.w3.org/1999/xlink" width="30" height="30" viewBox="0 0 30 30">
  <defs>
    <clipPath id="clip-path">
      <rect id="사각형_4153" data-name="사각형 4153" width="18.132" height="22" transform="translate(-2176 3008)" fill="#343434" stroke="#707070" stroke-width="1"/>
    </clipPath>
  </defs>
  <g id="사각형_4154" data-name="사각형 4154" fill="#343434" stroke="#707070" stroke-width="1" opacity="0">
    <rect width="30" height="30" stroke="none"/>
    <rect x="0.5" y="0.5" width="29" height="29" fill="none"/>
  </g>
  <g id="마스크_그룹_2" data-name="마스크 그룹 2" transform="translate(2182 -3004)" clip-path="url(#clip-path)">
    <path id="패스_70096" data-name="패스 70096" d="M12.657,0A7.563,7.563,0,0,0,7.3,2.217L1.76,7.747,1.3,7.289h0A.757.757,0,1,0,.227,8.354l3.619,3.621-.4.4a3.1,3.1,0,0,0,4.394,4.378l.4-.4,3.619,3.613h0A.758.758,0,1,0,12.934,18.9l-.458-.458,5.531-5.53a7.555,7.555,0,0,0,.514-10.129L19,2.3h0a.757.757,0,1,0-1.075-1.065l-.482.481A7.546,7.546,0,0,0,12.657,0Zm0,1.507A6.059,6.059,0,0,1,16.94,11.841l-5.54,5.53L2.835,8.82l5.54-5.53a6.042,6.042,0,0,1,4.283-1.783ZM4.921,13.04l2.244,2.24-.4.4a1.586,1.586,0,0,1-2.244-2.24Z" transform="translate(-2181.197 3020.572) rotate(-45)" fill="#343434"/>
  </g>
</svg>
