<svg xmlns="http://www.w3.org/2000/svg" width="90" height="90" viewBox="0 0 90 90">
  <g id="그룹_29776" data-name="그룹 29776" transform="translate(-153.51 -142.51)">
    <g id="사각형_5" data-name="사각형 5" transform="translate(153.51 142.51)" fill="#45a6ea" stroke="#707070" stroke-width="1" opacity="0">
      <rect width="90" height="90" stroke="none"/>
      <rect x="0.5" y="0.5" width="89" height="89" fill="none"/>
    </g>
    <path id="패스_1392" data-name="패스 1392" d="M209.121,35.547V19.116a19.12,19.12,0,1,0-38.24,0V35.547h-.436a7.109,7.109,0,0,0-7.11,7.116V72.874a7.108,7.108,0,0,0,7.11,7.116h39.114a7.109,7.109,0,0,0,7.11-7.116V42.663a7.108,7.108,0,0,0-7.11-7.116Zm-7.111,0V19.116a12.009,12.009,0,1,0-24.019,0V35.547Zm-9.605,21.716a4.444,4.444,0,1,0-4.807,0L185.635,64.7a1.311,1.311,0,0,0,1.41,1.753h5.914a1.315,1.315,0,0,0,1.41-1.753Z" transform="translate(7.841 147.519)" fill="#343434" fill-rule="evenodd"/>
  </g>
</svg>
