<svg xmlns="http://www.w3.org/2000/svg" width="17.416" height="13.684" viewBox="0 0 17.416 13.684">
  <path id="Icon_ionic-md-mail" data-name="Icon ionic-md-mail" d="M18.008,5.625H3.909A1.664,1.664,0,0,0,2.25,7.284V17.651a1.664,1.664,0,0,0,1.659,1.659h14.1a1.664,1.664,0,0,0,1.659-1.659V7.284A1.664,1.664,0,0,0,18.008,5.625ZM17.8,9.15l-6.842,4.561L4.116,9.15V7.491l6.842,4.561L17.8,7.491Z" transform="translate(-2.25 -5.625)" fill="#fff"/>
</svg>
